…
"2010-01-01"

,

to

=

"2016-12-31"

)

beer_sales_tbl

## # A tibble: 84 x 2
##          date price
##        

##  1 2010-01-01  6558
##  2 2010-02-01  7481
##  3 2010-03-01  9475
##  4 2010-04-01  9424
##  5 2010-05-01  9351
##  6 2010-06-01 10552
##  7 2010-07-01  9077
##  8 2010-08-01  9273
##  9 2010-09-01  9420
## 10 2010-10-01  9413
## # ... with 74 more rows
…
 (LASSO), and others.

Step 0: Review data

Just to show our starting point, let’s print out our 

beer_sales_tbl

.

# Starting point

beer_sales_tbl

## # A tibble: 84 x 2
##          date price
##        

##  1 2010-01-01  6558
##  2 2010-02-01  7481
##  3 2010-03-01  9475
##  4 2010-04-01  9424
##  5 2010-05-01  9351
##  6 2010-06-01 10552
##  7 2010-07-01  9077
##  8 2010-08-01  9273
##  9 2010-09-01  9420
## 10 2010-10-01  9413
## # ... with 74 more rows
…
<-

beer_sales_tbl

%>%

tk_augment_timeseries_

signature

()

beer_sales_tbl_aug

## # A tibble: 84 x 30
##          date price  index.num    diff  year year.iso  half quarter
##        

##  1 2010-01-01  6558 1262304000      NA  2010     2009     1       1
##  2 2010-02-01  7481 1264982400 2678400  2010     2010     1       1
##  3 2010-03-01  9475 1267401600 2419200  2010     2010     1       1
##  4 2010-04-01  9424 1270080000 2678400  2010     2010     1       2
##  5 2010-05-01  9351 1272672000 2592000  2010     2010     1       2
##  6 2010-06-01 10552 1275350400 2678400  2010     2010     1       2
##  7 2010-07-01  9077 1277942400 2592000  2010     2010     2       3
##  8 2010-08-01  9273 1280620800 2678400  2010     2010     2       3
##  9 2010-09-01  9420 1283299200 2678400  2010     2010     2       3
## 10 2010-10-01  9413 1285891200 2592000  2010     2010     2       4
## # ... with 74 more rows, and 22 more variables: month 
…
(

beer_sales_xts

,

rename_index

=

"date"

)

## # A tibble: 84 x 2
##          date price
##        

##  1 2010-01-01  6558
##  2 2010-02-01  7481
##  3 2010-03-01  9475
##  4 2010-04-01  9424
##  5 2010-05-01  9351
##  6 2010-06-01 10552
##  7 2010-07-01  9077
##  8 2010-08-01  9273
##  9 2010-09-01  9420
## 10 2010-10-01  9413
## # ... with 74 more rows
…
(

beer_sales_ts

,

rename_index

=

"date"

)

## # A tibble: 84 x 2
##             date price
##    

##  1      Jan 2010  6558
##  2      Feb 2010  7481
##  3      Mar 2010  9475
##  4      Apr 2010  9424
##  5      May 2010  9351
##  6      Jun 2010 10552
##  7      Jul 2010  9077
##  8      Aug 2010  9273
##  9      Sep 2010  9420
## 10      Oct 2010  9413
## # ... with 74 more rows
…
=

TRUE

,

rename_index

=

"date"

)

## # A tibble: 84 x 2
##          date price
##        

##  1 2010-01-01  6558
##  2 2010-02-01  7481
##  3 2010-03-01  9475
##  4 2010-04-01  9424
##  5 2010-05-01  9351
##  6 2010-06-01 10552
##  7 2010-07-01  9077
##  8 2010-08-01  9273
##  9 2010-09-01  9420
## 10 2010-10-01  9413
## # ... with 74 more rows
…
