…
  specify
(response = mpg) %>% # formula alt: mpg ~ NULL

  hypothesize
(null = "point", med = 26) %>% 

  generate
(reps = 100, type = "bootstrap") %>% 

  calculate
(stat = "median")

Here, we first specify the response and explanatory variables, then we declare a null hypothesis. After that, we generate resamples using bootstrap and finally calculate the median. The result of that code is:

## # A tibble: 100 x 2

##    replicate  stat

##        <int> <dbl>

##  1         1  26.6

##  2         2  25.1

##  3         3  25.2

##  4         4  24.7

##  5         5  24.6

##  6         6  25.8

##  7         7  24.7

##  8         8  25.6

##  9         9  25.0

## 10        10  25.1

## # ... with 90 more rows
…
