R4DataScience
…
3.2 First steps

Let’s use our first graph to answer a question: Do cars with big engines use more fuel than cars with small engines? You probably already have an answer, but try to make your answer precise. 
What does the relationship between engine size and fuel efficiency look like? Is it positive? Negative? Linear? Nonlinear?

3.2.1 The mpg data frame

You can test your answer with the mpg data frame found in ggplot2 (aka ggplot2::mpg). 
A data frame is a rectangular collection of variables (in the columns) and observations (in the rows). 
mpg contains observations collected by the US Environmental Protection Agency on 38 models of car.

mpg
#> # A tibble: 234 x 11
#>   manufacturer model displ  year   cyl trans      drv     cty   hwy fl    class 
#>   <chr>        <chr> <dbl> <int> <int> <chr>      <chr> <int> <int> <chr> <chr> 
#> 1 audi         a4      1.8  1999     4 auto(l5)   f        18    29 p     compa…
#> 2 audi         a4      1.8  1999     4 manual(m5) f        21    29 p     compa…
#> 3 audi         a4      2    2008     4 manual(m6) f        20    31 p     compa…
#> 4 audi         a4      2    2008     4 auto(av)   f        21    30 p     compa…
#> 5 audi         a4      2.8  1999     6 auto(l5)   f        16    26 p     compa…
#> 6 audi         a4      2.8  1999     6 manual(m5) f        18    26 p     compa…
#> # … with 228 more rows
…
library(nycflights13)
library(tidyverse)

Take careful note of the conflicts message that’s printed when you load the tidyverse. 
It tells you that dplyr overwrites some functions in base R. 
If you want to use the base version of these functions after loading dplyr, you’ll need to use their full names: stats::filter() and stats::lag().

5.1.2 nycflights13

To explore the basic data manipulation verbs of dplyr, we’ll use nycflights13::flights. 
This data frame contains all 336,776 flights that departed from New York City in 2013. 
The data comes from the US Bureau of Transportation Statistics, and is documented in ?flights.

flights
#> # A tibble: 336,776 x 19
#>    year month   day dep_time sched_dep_time dep_delay arr_time sched_arr_time
#>   <int> <int> <int>    <int>          <int>     <dbl>    <int>          <int>
#> 1  2013     1     1      517            515         2      830            819
#> 2  2013     1     1      533            529         4      850            830
#> 3  2013     1     1      542            540         2      923            850
#> 4  2013     1     1      544            545        -1     1004           1022
#> 5  2013     1     1      554            600        -6      812            837
#> 6  2013     1     1      554            558        -4      740            728
#> # … with 336,770 more rows, and 11 more variables: arr_delay <dbl>,
#> #   carrier <chr>, flight <int>, tailnum <chr>, origin <chr>, dest <chr>,
#> #   air_time <dbl>, distance <dbl>, hour <dbl>, minute <dbl>, time_hour <dttm>
…
The result is a new data frame.

Together these properties make it easy to chain together multiple simple steps to achieve a complex result. 
Let’s dive in and see how these verbs work.

5.2 Filter rows with filter()

filter() allows you to subset observations based on their values. 
The first argument is the name of the data frame. 
The second and subsequent arguments are the expressions that filter the data frame. 
For example, we can select all flights on January 1st with:

filter(flights, month == 1, day == 1)
#> # A tibble: 842 x 19
#>    year month   day dep_time sched_dep_time dep_delay arr_time sched_arr_time
#>   <int> <int> <int>    <int>          <int>     <dbl>    <int>          <int>
#> 1  2013     1     1      517            515         2      830            819
#> 2  2013     1     1      533            529         4      850            830
#> 3  2013     1     1      542            540         2      923            850
#> 4  2013     1     1      544            545        -1     1004           1022
#> 5  2013     1     1      554            600        -6      812            837
#> 6  2013     1     1      554            558        -4      740            728
#> # … with 836 more rows, and 11 more variables: arr_delay <dbl>, carrier <chr>,
#> #   flight <int>, tailnum <chr>, origin <chr>, dest <chr>, air_time <dbl>,
#> #   distance <dbl>, hour <dbl>, minute <dbl>, time_hour <dttm>

When you run that line of code, dplyr executes the filtering operation and returns a new data frame. 
dplyr functions never modify their inputs, so if you want to save the result, you’ll need to use the assignment operator, <-:

jan1 <- filter(flights, month == 1, day == 1)

R either prints out the results, or saves them to a variable. 
If you want to do both, you can wrap the assignment in parentheses:

(dec25 <- filter(flights, month == 12, day == 25))
#> # A tibble: 719 x 19
#>    year month   day dep_time sched_dep_time dep_delay arr_time sched_arr_time
#>   <int> <int> <int>    <int>          <int>     <dbl>    <int>          <int>
#> 1  2013    12    25      456            500        -4      649            651
#> 2  2013    12    25      524            515         9      805            814
#> 3  2013    12    25      542            540         2      832            850
#> 4  2013    12    25      546            550        -4     1022           1027
#> 5  2013    12    25      556            600        -4      730            745
#> 6  2013    12    25      557            600        -3      743            752
#> # … with 713 more rows, and 11 more variables: arr_delay <dbl>, carrier <chr>,
#> #   flight <int>, tailnum <chr>, origin <chr>, dest <chr>, air_time <dbl>,
#> #   distance <dbl>, hour <dbl>, minute <dbl>, time_hour <dttm>
…
How many flights have a missing dep_time? What other variables are
missing? What might these rows represent?

Why is NA ^ 0 not missing? Why is NA | TRUE not missing?
Why is FALSE & NA not missing? Can you figure out the general
rule? (NA * 0 is a tricky counterexample!)

5.3 Arrange rows with arrange()

arrange() works similarly to filter() except that instead of selecting rows, it changes their order. 
It takes a data frame and a set of column names (or more complicated expressions) to order by. 
If you provide more than one column name, each additional column will be used to break ties in the values of preceding columns:

arrange(flights, year, month, day)
#> # A tibble: 336,776 x 19
#>    year month   day dep_time sched_dep_time dep_delay arr_time sched_arr_time
#>   <int> <int> <int>    <int>          <int>     <dbl>    <int>          <int>
#> 1  2013     1     1      517            515         2      830            819
#> 2  2013     1     1      533            529         4      850            830
#> 3  2013     1     1      542            540         2      923            850
#> 4  2013     1     1      544            545        -1     1004           1022
#> 5  2013     1     1      554            600        -6      812            837
#> 6  2013     1     1      554            558        -4      740            728
#> # … with 336,770 more rows, and 11 more variables: arr_delay <dbl>,
#> #   carrier <chr>, flight <int>, tailnum <chr>, origin <chr>, dest <chr>,
#> #   air_time <dbl>, distance <dbl>, hour <dbl>, minute <dbl>, time_hour <dttm>

Use desc() to re-order by a column in descending order:

arrange(flights, desc(dep_delay))
#> # A tibble: 336,776 x 19
#>    year month   day dep_time sched_dep_time dep_delay arr_time sched_arr_time
#>   <int> <int> <int>    <int>          <int>     <dbl>    <int>          <int>
#> 1  2013     1     9      641            900      1301     1242           1530
#> 2  2013     6    15     1432           1935      1137     1607           2120
#> 3  2013     1    10     1121           1635      1126     1239           1810
#> 4  2013     9    20     1139           1845      1014     1457           2210
#> 5  2013     7    22      845           1600      1005     1044           1815
#> 6  2013     4    10     1100           1900       960     1342           2211
#> # … with 336,770 more rows, and 11 more variables: arr_delay <dbl>,
#> #   carrier <chr>, flight <int>, tailnum <chr>, origin <chr>, dest <chr>,
#> #   air_time <dbl>, distance <dbl>, hour <dbl>, minute <dbl>, time_hour <dttm>
…
Sort flights to find the fastest (highest speed) flights.

Which flights travelled the farthest? Which travelled the shortest?

5.4 Select columns with select()

It’s not uncommon to get datasets with hundreds or even thousands of variables. 
In this case, the first challenge is often narrowing in on the variables you’re actually interested in. 
select() allows you to rapidly zoom in on a useful subset using operations based on the names of the variables.

select() is not terribly useful with the flights data because we only have 19 variables, but you can still get the general idea:

# Select columns by name
select(flights, year, month, day)
#> # A tibble: 336,776 x 3
#>    year month   day
#>   <int> <int> <int>
#> 1  2013     1     1
#> 2  2013     1     1
#> 3  2013     1     1
#> 4  2013     1     1
#> 5  2013     1     1
#> 6  2013     1     1
#> # … with 336,770 more rows
# Select all columns between year and day (inclusive)
select(flights, year:day)
#> # A tibble: 336,776 x 3
#>    year month   day
#>   <int> <int> <int>
#> 1  2013     1     1
#> 2  2013     1     1
#> 3  2013     1     1
#> 4  2013     1     1
#> 5  2013     1     1
#> 6  2013     1     1
#> # … with 336,770 more rows
# Select all columns except those from year to day (inclusive)
select(flights, -(year:day))
#> # A tibble: 336,776 x 16
#>   dep_time sched_dep_time dep_delay arr_time sched_arr_time arr_delay carrier
#>      <int>          <int>     <dbl>    <int>          <int>     <dbl> <chr>  
#> 1      517            515         2      830            819        11 UA     
#> 2      533            529         4      850            830        20 UA     
#> 3      542            540         2      923            850        33 AA     
#> 4      544            545        -1     1004           1022       -18 B6     
#> 5      554            600        -6      812            837       -25 DL     
#> 6      554            558        -4      740            728        12 UA     
#> # … with 336,770 more rows, and 9 more variables: flight <int>, tailnum <chr>,
#> #   origin <chr>, dest <chr>, air_time <dbl>, distance <dbl>, hour <dbl>,
#> #   minute <dbl>, time_hour <dttm>
…
matches("(.)\\1"): selects variables that match a regular expression.
This one matches any variables that contain repeated characters. 
You’ll
learn more about regular expressions in strings.

num_range("x", 1:3): matches x1, x2 and x3.

See ?select for more details.

select() can be used to rename variables, but it’s rarely useful because it drops all of the variables not explicitly mentioned. 
Instead, use rename(), which is a variant of select() that keeps all the variables that aren’t explicitly mentioned:

rename(flights, tail_num = tailnum)
#> # A tibble: 336,776 x 19
#>    year month   day dep_time sched_dep_time dep_delay arr_time sched_arr_time
#>   <int> <int> <int>    <int>          <int>     <dbl>    <int>          <int>
#> 1  2013     1     1      517            515         2      830            819
#> 2  2013     1     1      533            529         4      850            830
#> 3  2013     1     1      542            540         2      923            850
#> 4  2013     1     1      544            545        -1     1004           1022
#> 5  2013     1     1      554            600        -6      812            837
#> 6  2013     1     1      554            558        -4      740            728
#> # … with 336,770 more rows, and 11 more variables: arr_delay <dbl>,
#> #   carrier <chr>, flight <int>, tail_num <chr>, origin <chr>, dest <chr>,
#> #   air_time <dbl>, distance <dbl>, hour <dbl>, minute <dbl>, time_hour <dttm>

Another option is to use select() in conjunction with the everything() helper. 
This is useful if you have a handful of variables you’d like to move to the start of the data frame.

select(flights, time_hour, air_time, everything())
#> # A tibble: 336,776 x 19
#>   time_hour           air_time  year month   day dep_time sched_dep_time
#>   <dttm>                 <dbl> <int> <int> <int>    <int>          <int>
#> 1 2013-01-01 05:00:00      227  2013     1     1      517            515
#> 2 2013-01-01 05:00:00      227  2013     1     1      533            529
#> 3 2013-01-01 05:00:00      160  2013     1     1      542            540
#> 4 2013-01-01 05:00:00      183  2013     1     1      544            545
#> 5 2013-01-01 06:00:00      116  2013     1     1      554            600
#> 6 2013-01-01 05:00:00      150  2013     1     1      554            558
#> # … with 336,770 more rows, and 12 more variables: dep_delay <dbl>,
#> #   arr_time <int>, sched_arr_time <int>, arr_delay <dbl>, carrier <chr>,
#> #   flight <int>, tailnum <chr>, origin <chr>, dest <chr>, distance <dbl>,
#> #   hour <dbl>, minute <dbl>
…
mutate() always adds new columns at the end of your dataset so we’ll start by creating a narrower dataset so we can see the new variables. 
Remember that when you’re in RStudio, the easiest way to see all the columns is View().

flights_sml <- select(flights, 
  year:day, 
  ends_with("delay"), 
  distance, 
  air_time
)
mutate(flights_sml,
  gain = dep_delay - arr_delay,
  speed = distance / air_time * 60
)
#> # A tibble: 336,776 x 9
#>    year month   day dep_delay arr_delay distance air_time  gain speed
#>   <int> <int> <int>     <dbl>     <dbl>    <dbl>    <dbl> <dbl> <dbl>
#> 1  2013     1     1         2        11     1400      227    -9  370.
#> 2  2013     1     1         4        20     1416      227   -16  374.
#> 3  2013     1     1         2        33     1089      160   -31  408.
#> 4  2013     1     1        -1       -18     1576      183    17  517.
#> 5  2013     1     1        -6       -25      762      116    19  394.
#> 6  2013     1     1        -4        12      719      150   -16  288.
#> # … with 336,770 more rows

Note that you can refer to columns that you’ve just created:

mutate(flights_sml,
  gain = dep_delay - arr_delay,
  hours = air_time / 60,
  gain_per_hour = gain / hours
)
#> # A tibble: 336,776 x 10
#>    year month   day dep_delay arr_delay distance air_time  gain hours
#>   <int> <int> <int>     <dbl>     <dbl>    <dbl>    <dbl> <dbl> <dbl>
#> 1  2013     1     1         2        11     1400      227    -9  3.78
#> 2  2013     1     1         4        20     1416      227   -16  3.78
#> 3  2013     1     1         2        33     1089      160   -31  2.67
#> 4  2013     1     1        -1       -18     1576      183    17  3.05
#> 5  2013     1     1        -6       -25      762      116    19  1.93
#> 6  2013     1     1        -4        12      719      150   -16  2.5 
#> # … with 336,770 more rows, and 1 more variable: gain_per_hour <dbl>

If you only want to keep the new variables, use transmute():

transmute(flights,
  gain = dep_delay - arr_delay,
  hours = air_time / 60,
  gain_per_hour = gain / hours
)
#> # A tibble: 336,776 x 3
#>    gain hours gain_per_hour
#>   <dbl> <dbl>         <dbl>
#> 1    -9  3.78         -2.38
#> 2   -16  3.78         -4.23
#> 3   -31  2.67        -11.6 
#> 4    17  3.05          5.57
#> 5    19  1.93          9.83
#> 6   -16  2.5          -6.4 
#> # … with 336,770 more rows
…
Modular arithmetic: %/% (integer division) and %% (remainder), where
x == y * (x %/% y) + (x %% y). 
Modular arithmetic is a handy tool because
it allows you to break integers up into pieces. 
For example, in the
flights dataset, you can compute hour and minute from dep_time with:

transmute(flights,
  dep_time,
  hour = dep_time %/% 100,
  minute = dep_time %% 100
)
#> # A tibble: 336,776 x 3
#>   dep_time  hour minute
#>      <int> <dbl>  <dbl>
#> 1      517     5     17
#> 2      533     5     33
#> 3      542     5     42
#> 4      544     5     44
#> 5      554     5     54
#> 6      554     5     54
#> # … with 336,770 more rows
…
(We’ll come back to what that na.rm = TRUE means very shortly.)

summarise() is not terribly useful unless we pair it with group_by(). 
This changes the unit of analysis from the complete dataset to individual groups. 
Then, when you use the dplyr verbs on a grouped data frame they’ll be automatically applied 'by group'. 
For example, if we applied exactly the same code to a data frame grouped by date, we get the average delay per date:

by_day <- group_by(flights, year, month, day)
summarise(by_day, delay = mean(dep_delay, na.rm = TRUE))
#> # A tibble: 365 x 4
#> # Groups:   year, month [12]
#>    year month   day delay
#>   <int> <int> <int> <dbl>
#> 1  2013     1     1 11.5 
#> 2  2013     1     2 13.9 
#> 3  2013     1     3 11.0 
#> 4  2013     1     4  8.95
#> 5  2013     1     5  5.73
#> 6  2013     1     6  7.15
#> # … with 359 more rows
…
Working with the pipe is one of the key criteria for belonging to the tidyverse. 
The only exception is ggplot2: it was written before the pipe was discovered. 
Unfortunately, the next iteration of ggplot2, ggvis, which does use the pipe, isn’t quite ready for prime time yet.

5.6.2 Missing values

You may have wondered about the na.rm argument we used above. 
What happens if we don’t set it?

flights %>% 
  group_by(year, month, day) %>% 
  summarise(mean = mean(dep_delay))
#> # A tibble: 365 x 4
#> # Groups:   year, month [12]
#>    year month   day  mean
#>   <int> <int> <int> <dbl>
#> 1  2013     1     1    NA
#> 2  2013     1     2    NA
#> 3  2013     1     3    NA
#> 4  2013     1     4    NA
#> 5  2013     1     5    NA
#> 6  2013     1     6    NA
#> # … with 359 more rows

We get a lot of missing values! That’s because aggregation functions obey the usual rule of missing values: if there’s any missing value in the input, the output will be a missing value. 
Fortunately, all aggregation functions have an na.rm argument which removes the missing values prior to computation:

flights %>% 
  group_by(year, month, day) %>% 
  summarise(mean = mean(dep_delay, na.rm = TRUE))
#> # A tibble: 365 x 4
#> # Groups:   year, month [12]
#>    year month   day  mean
#>   <int> <int> <int> <dbl>
#> 1  2013     1     1 11.5 
#> 2  2013     1     2 13.9 
#> 3  2013     1     3 11.0 
#> 4  2013     1     4  8.95
#> 5  2013     1     5  5.73
#> 6  2013     1     6  7.15
#> # … with 359 more rows

In this case, where missing values represent cancelled flights, we could also tackle the problem by first removing the cancelled flights. 
We’ll save this dataset so we can reuse it in the next few examples.

not_cancelled <- flights %>% 
  filter(!is.na(dep_delay), !is.na(arr_delay))

not_cancelled %>% 
  group_by(year, month, day) %>% 
  summarise(mean = mean(dep_delay))
#> # A tibble: 365 x 4
#> # Groups:   year, month [12]
#>    year month   day  mean
#>   <int> <int> <int> <dbl>
#> 1  2013     1     1 11.4 
#> 2  2013     1     2 13.7 
#> 3  2013     1     3 10.9 
#> 4  2013     1     4  8.97
#> 5  2013     1     5  5.73
#> 6  2013     1     6  7.15
#> # … with 359 more rows
…
This also has important implications for ranking. 
If you naively sort on desc(ba), the people with the best batting averages are clearly lucky, not skilled:

batters %>% 
  arrange(desc(ba))
#> # A tibble: 19,428 x 3
#>   playerID     ba    ab
#>   <chr>     <dbl> <int>
#> 1 abramge01     1     1
#> 2 alberan01     1     1
#> 3 allarko01     1     1
#> 4 banisje01     1     1
#> 5 bartocl01     1     1
#> 6 bassdo01      1     1
#> # … with 19,422 more rows
…
