R Notes
…
You can compute this by hand by combining dplyr::count() and ggplot2::cut_width():

diamonds %>% 
  count(cut_width(carat, 0.5))
#> # A tibble: 11 x 2
#>   `cut_width(carat, 0.5)`     n
#>   <fct>                   <int>
#> 1 [-0.25,0.25]              785
#> 2 (0.25,0.75]             29498
#> 3 (0.75,1.25]             15977
#> 4 (1.25,1.75]              5313
#> 5 (1.75,2.25]              2002
#> 6 (2.25,2.75]               322
#> # … with 5 more rows
…
The size of each circle in the plot displays how many observations occurred at each combination of values. 
Covariation will appear as a strong correlation between specific x values and specific y values.

Another approach is to compute the count with dplyr:

diamonds %>% 
  count(color, cut)
#> # A tibble: 35 x 3
#>   color cut           n
#>   <ord> <ord>     <int>
#> 1 D     Fair        163
#> 2 D     Good        662
#> 3 D     Very Good  1513
#> 4 D     Premium    1603
#> 5 D     Ideal      2834
#> 6 E     Fair        224
#> # … with 29 more rows
…
Prerequisites

In this chapter we’ll explore the tibble package, part of the core tidyverse.

library(tidyverse)

Creating tibbles

Almost all of the functions that you’ll use in this book produce tibbles, as tibbles are one of the unifying features of the tidyverse. 
Most other R packages use regular data frames, so you might want to coerce a data frame to a tibble. 
You can do that with as_tibble():

as_tibble(iris)
#> # A tibble: 150 x 5
#>   Sepal.Length Sepal.Width Petal.Length Petal.Width Species
#>          <dbl>       <dbl>        <dbl>       <dbl> <fct>  
#> 1          5.1         3.5          1.4         0.2 setosa 
#> 2          4.9         3            1.4         0.2 setosa 
#> 3          4.7         3.2          1.3         0.2 setosa 
#> 4          4.6         3.1          1.5         0.2 setosa 
#> 5          5           3.6          1.4         0.2 setosa 
#> 6          5.4         3.9          1.7         0.4 setosa 
#> # … with 144 more rows
…
Printing

Tibbles have a refined print method that shows only the first 10 rows, and all the columns that fit on screen. 
This makes it much easier to work with large data. 
In addition to its name, each column reports its type, a nice feature borrowed from str():

tibble(
  a = lubridate::now() + runif(1e3) * 86400,
  b = lubridate::today() + runif(1e3) * 30,
  c = 1:1e3,
  d = runif(1e3),
  e = sample(letters, 1e3, replace = TRUE)
)
#> # A tibble: 1,000 x 5
#>   a                   b              c     d e    
#>   <dttm>              <date>     <int> <dbl> <chr>
#> 1 2020-10-09 13:55:17 2020-10-16     1 0.368 n    
#> 2 2020-10-10 08:00:26 2020-10-21     2 0.612 l    
#> 3 2020-10-10 02:24:06 2020-10-31     3 0.415 p    
#> 4 2020-10-09 15:45:23 2020-10-30     4 0.212 m    
#> 5 2020-10-09 12:09:39 2020-10-27     5 0.733 i    
#> 6 2020-10-09 23:10:37 2020-10-23     6 0.460 n    
#> # … with 994 more rows
…
