Spark with R
…
lda_model <-  ml_lda(essays, ~ words, k = 6, max_iter = 1, min_token_length = 4, 
                     stop_words = stop_words, min_df = 5)

We are also including a stop_words vector, consisting of commonly used English words and common words in our dataset, that instructs the algorithm to ignore them. 
After the model is fit, we can use the tidy() function to extract the associated betas, which are the per-topic-per-word probabilities, from the model.

betas <- tidy(lda_model)
betas

# A tibble: 256,992 x 3
   topic term      beta
   <int> <chr>    <dbl>
 1     0 know      303.
 2     0 work      250.
 3     0 want      367.
 4     0 books     211.
 5     0 family    213.
 6     0 think     291.
 7     0 going     160.
 8     0 anything  292.
 9     0 enjoy     145.
10     0 much      272.
# … with 256,982 more rows
…
FIGURE 10.3: The Seven Bridges of Königsberg from the Euler archive

Today, a graph is defined as an ordered pair \(G=(V,E)\), with \(V\) a set of vertices (nodes or points) and \(E \subseteq \{\{x, y\} | (x, y) ∈ \mathrm{V}^2 \land x \ne y\}\) a set of edges (links or lines), which are either an unordered pair for undirected graphs or an ordered pair for directed graphs. 
The former describes links where the direction does not matter, and the latter describes links where it does.

As a simple example, we can use the highschool dataset from the ggraph package, which tracks friendship among high school boys. 
In this dataset, the vertices are the students and the edges describe pairs of students who happen to be friends in a particular year:

install.packages("ggraph")
install.packages("igraph")

ggraph::highschool

# A tibble: 506 x 3
    from    to  year
   <dbl> <dbl> <dbl>
 1     1    14  1957
 2     1    15  1957
 3     1    21  1957
 4     1    54  1957
 5     1    55  1957
 6     2    21  1957
 7     2    22  1957
 8     3     9  1957
 9     3    15  1957
10     4     5  1957
# … with 496 more rows
…
