statologyContents 6
…
We can see that 7 rows in the dataset met this condition.
Example 4: Filter Rows with Values in a List

We can also filter for rows where the eye color is in a list of colors:
starwars %>% filter(eye_color %in% c('blue', 'yellow', 'red'))
# A tibble: 35 x 13
   name  height  mass hair_color skin_color eye_color birth_year gender               
 1 Luke~    172    77 blond      fair       blue            19   male  
 2 C-3PO    167    75 <NA>       gold       yellow         112   <NA> 
 3 R2-D2     96    32 <NA>       white, bl~ red             33   <NA>  
 4 Dart~    202   136 none       white      yellow          41.9 male  
 5 Owen~    178   120 brown, gr~ light      blue            52   male  
 6 Beru~    165    75 brown      light      blue            47   female
 7 R5-D4     97    32 <NA>       white, red red             NA   <NA> 
 8 Anak~    188    84 blond      fair       blue            41.9 male  
 9 Wilh~    180    NA auburn, g~ fair       blue            64   male  
10 Chew~    228   112 brown      unknown    blue           200   male  
# ... with 25 more rows, and 5 more variables: homeworld , species ,
#   films , vehicles , starships  
…
#   starships   
#find rows where height is between 200 and 220
starwars %>% filter(height > 200 & height < 220)
# A tibble: 5 x 13
  name  height  mass hair_color skin_color eye_color birth_year gender homeworld                   
1 Dart~    202   136 none       white      yellow          41.9 male   Tatooine 
2 Rugo~    206    NA none       green      orange          NA   male   Naboo    
3 Taun~    213    NA none       grey       black           NA   female Kamino   
4 Grie~    216   159 none       brown, wh~ green, y~       NA   male   Kalee    
5 Tion~    206    80 none       grey       black           NA   male   Utapau   
# ... with 4 more variables: species , films , vehicles ,
#   starships 
#find rows where height is above the average height
starwars %>% filter(height > mean(height, na.rm = TRUE))
# A tibble: 51 x 13
   name  height  mass hair_color skin_color eye_color birth_year gender               
 1 Dart~    202   136 none       white      yellow          41.9 male  
 2 Owen~    178   120 brown, gr~ light      blue            52   male  
 3 Bigg~    183    84 black      light      brown           24   male  
 4 Obi-~    182    77 auburn, w~ fair       blue-gray       57   male  
 5 Anak~    188    84 blond      fair       blue            41.9 male  
 6 Wilh~    180    NA auburn, g~ fair       blue            64   male  
 7 Chew~    228   112 brown      unknown    blue           200   male  
 8 Han ~    180    80 brown      fair       brown           29   male  
 9 Jabb~    175  1358 <NA>       green-tan~ orange         600   herma~
10 Jek ~    180   110 brown      fair       blue            NA   male  
# ... with 41 more rows, and 5 more variables: homeworld , species ,
#   films , vehicles , starships 
…
