statologyContents 15
…
A tibble is a data frame in R that has a refined print method that only shows the first 10 rows of a data frame. This makes it much easier to work with large data and prevents R from attempting to display every row of a data frame.
For example, consider the following tibble with 80 rows and 2 columns:
#load dplyr
library(dplyr)
#make this example reproducible
set.seed(1)
#create tibble
data <- tibble(a = rnorm(80),
               b = rnorm(80))

#view tibble
data
# A tibble: 80 x 2
        a      b
      
 1 -0.626 -0.569
 2  0.184 -0.135
 3 -0.836  1.18 
 4  1.60  -1.52 
 5  0.330  0.594
 6 -0.820  0.333
 7  0.487  1.06 
 8  0.738 -0.304
 9  0.576  0.370
10 -0.305  0.267
# ... with 70 more rows
When we type in the name of the tibble in R, it will only show the first 10 rows by default. However, it does tell us that there are 70 more rows that are not being displayed.
But in some cases you may actually want to see more than just 10 rows of a tibble.
Note: If you’re new to tibbles, a great place to start is the  tibbles chapter  in R for Data Science.
Print a Specific Number of Rows of a Tibble

You can print a specific number of rows of a tibble by specifying a number in the print() function:
#print first 20 rows of tibble
print(data, n=20)
# A tibble: 80 x 2
         a      b
       
 1 -0.626  -0.569
 2  0.184  -0.135
 3 -0.836   1.18 
 4  1.60   -1.52 
 5  0.330   0.594
 6 -0.820   0.333
 7  0.487   1.06 
 8  0.738  -0.304
 9  0.576   0.370
10 -0.305   0.267
11  1.51   -0.543
12  0.390   1.21 
13 -0.621   1.16 
14 -2.21    0.700
15  1.12    1.59 
16 -0.0449  0.558
17 -0.0162 -1.28 
18  0.944  -0.573
19  0.821  -1.22 
20  0.594  -0.473
# ... with 60 more rows
You can also use the pipe operator to achieve the same result:
#print first 20 rows of tibble
data %>% print(n=20)
# A tibble: 80 x 2
         a      b
       
 1 -0.626  -0.569
 2  0.184  -0.135
 3 -0.836   1.18 
 4  1.60   -1.52 
 5  0.330   0.594
 6 -0.820   0.333
 7  0.487   1.06 
 8  0.738  -0.304
 9  0.576   0.370
10 -0.305   0.267
11  1.51   -0.543
12  0.390   1.21 
13 -0.621   1.16 
14 -2.21    0.700
15  1.12    1.59 
16 -0.0449  0.558
17 -0.0162 -1.28 
18  0.944  -0.573
19  0.821  -1.22 
20  0.594  -0.473
# ... with 60 more rows
…
