Tidy Modeling
…
lm_wflow <- 
  workflow() %>% 
  add_model(lm_model) %>% 
  add_recipe(ames_rec)

lm_fit <- fit(lm_wflow, ames_train)
The tidy() method can be called again along with the id identifier we specified to get our results for applying step_other():

estimated_recipe <- 
  lm_fit %>% 
  extract_recipe(estimated = TRUE)

tidy(estimated_recipe, id = "my_id")
#> # A tibble: 22 × 3
#>   terms        retained           id   
#>   <chr>        <chr>              <chr>
#> 1 Neighborhood North_Ames         my_id
#> 2 Neighborhood College_Creek      my_id
#> 3 Neighborhood Old_Town           my_id
#> 4 Neighborhood Edwards            my_id
#> 5 Neighborhood Somerset           my_id
#> 6 Neighborhood Northridge_Heights my_id
#> #  16 more rows
The tidy() results we see here for using step_other() show which factor levels were retained, i.e., not added to the new “other” category.
The tidy() method can be called with the number identifier as well, if we know which step in the recipe we need:

tidy(estimated_recipe, number = 2)
#> # A tibble: 22 × 3
#>   terms        retained           id   
#>   <chr>        <chr>              <chr>
#> 1 Neighborhood North_Ames         my_id
#> 2 Neighborhood College_Creek      my_id
#> 3 Neighborhood Old_Town           my_id
#> 4 Neighborhood Edwards            my_id
#> 5 Neighborhood Somerset           my_id
#> 6 Neighborhood Northridge_Heights my_id
#> #  16 more rows
…
function(data, truth, ...)
where data is a data frame or tibble and truth is the column with the observed outcome values.
The ellipses or other arguments are used to specify the column(s) containing the predictions.
To illustrate, let’s take the model from Section 8.8.
This model lm_wflow_fit combines a linear regression model with a predictor set supplemented with an interaction and spline functions for longitude and latitude.
It was created from a training set (named ames_train).
Although we do not advise using the test set at this juncture of the modeling process, it will be used here to illustrate functionality and syntax.
The data frame ames_test consists of 588 properties.
To start, let’s produce predictions:

ames_test_res <- predict(lm_fit, new_data = ames_test %>% select(-Sale_Price))
ames_test_res
#> # A tibble: 588 × 1
#>   .pred
#>   <dbl>
#> 1  5.07
#> 2  5.31
#> 3  5.28
#> 4  5.33
#> 5  5.30
#> 6  5.24
#> #  582 more rows
The predicted numeric outcome from the regression model is named .pred.
Let’s match the predicted values with their corresponding observed outcome values:

ames_test_res <- bind_cols(ames_test_res, ames_test %>% select(Sale_Price))
ames_test_res
#> # A tibble: 588 × 2
#>   .pred Sale_Price
#>   <dbl>      <dbl>
#> 1  5.07       5.02
#> 2  5.31       5.39
#> 3  5.28       5.28
#> 4  5.33       5.28
#> 5  5.30       5.28
#> 6  5.24       5.26
#> #  582 more rows
…
The yardstick package does not contain a function for adjusted \(R^2\).
This modification of the coefficient of determination is commonly used when the same data used to fit the model are used to evaluate the model.
This metric is not fully supported in tidymodels because it is always a better approach to compute performance on a separate data set than the one used to fit the model.

9.3 Binary Classification Metrics

To illustrate other ways to measure model performance, we will switch to a different example.
The modeldata package (another one of the tidymodels packages) contains example predictions from a test data set with two classes (“Class1” and “Class2”):

data(two_class_example)
tibble(two_class_example)
#> # A tibble: 500 × 4
#>   truth   Class1   Class2 predicted
#>   <fct>    <dbl>    <dbl> <fct>    
#> 1 Class2 0.00359 0.996    Class2   
#> 2 Class1 0.679   0.321    Class1   
#> 3 Class2 0.111   0.889    Class2   
#> 4 Class1 0.735   0.265    Class1   
#> 5 Class2 0.0162  0.984    Class2   
#> 6 Class1 0.999   0.000725 Class1   
#> #  494 more rows
…
two_class_curve <- roc_curve(two_class_example, truth, Class1)
two_class_curve
#> # A tibble: 502 × 3
#>   .threshold specificity sensitivity
#>        <dbl>       <dbl>       <dbl>
#> 1 -Inf           0                 1
#> 2    1.79e-7     0                 1
#> 3    4.50e-6     0.00413           1
#> 4    5.81e-6     0.00826           1
#> 5    5.92e-6     0.0124            1
#> 6    1.22e-5     0.0165            1
#> #  496 more rows
…
Figure 9.3: Example ROC curve

If the curve was close to the diagonal line, then the model’s predictions would be no better than random guessing.
Since the curve is up in the top, left-hand corner, we see that our model performs well at different thresholds.
There are a number of other functions that use probability estimates, including gain_curve(), lift_curve(), and pr_curve().

9.4 Multiclass Classification Metrics

What about data with three or more classes? To demonstrate, let’s explore a different example data set that has four classes:

data(hpc_cv)
tibble(hpc_cv)
#> # A tibble: 3,467 × 7
#>   obs   pred     VF      F       M          L Resample
#>   <fct> <fct> <dbl>  <dbl>   <dbl>      <dbl> <chr>   
#> 1 VF    VF    0.914 0.0779 0.00848 0.0000199  Fold01  
#> 2 VF    VF    0.938 0.0571 0.00482 0.0000101  Fold01  
#> 3 VF    VF    0.947 0.0495 0.00316 0.00000500 Fold01  
#> 4 VF    VF    0.929 0.0653 0.00579 0.0000156  Fold01  
#> 5 VF    VF    0.942 0.0543 0.00381 0.00000729 Fold01  
#> 6 VF    VF    0.951 0.0462 0.00272 0.00000384 Fold01  
#> #  3,461 more rows
…
roc_auc(hpc_cv, obs, VF, F, M, L, estimator = "macro_weighted")
#> # A tibble: 1 × 3
#>   .metric .estimator     .estimate
#>   <chr>   <chr>              <dbl>
#> 1 roc_auc macro_weighted     0.868
Finally, all of these performance metrics can be computed using dplyr groupings.
Recall that these data have a column for the resampling groups.
We haven’t yet discussed resampling in detail, but notice how we can pass a grouped data frame to the metric function to compute the metrics for each group:

hpc_cv %>% 
  group_by(Resample) %>% 
  accuracy(obs, pred)
#> # A tibble: 10 × 4
#>   Resample .metric  .estimator .estimate
#>   <chr>    <chr>    <chr>          <dbl>
#> 1 Fold01   accuracy multiclass     0.726
#> 2 Fold02   accuracy multiclass     0.712
#> 3 Fold03   accuracy multiclass     0.758
#> 4 Fold04   accuracy multiclass     0.712
#> 5 Fold05   accuracy multiclass     0.712
#> 6 Fold06   accuracy multiclass     0.697
#> #  4 more rows
…
What are the effects of changing V? Larger values result in resampling estimates with small bias but substantial variance.
Smaller values of V have large bias but low variance.
We prefer 10-fold since noise is reduced by replication, but bias is not.20

The primary input is the training set data frame as well as the number of folds (defaulting to 10):

set.seed(1001)
ames_folds <- vfold_cv(ames_train, v = 10)
ames_folds
#> #  10-fold cross-validation 
#> # A tibble: 10 × 2
#>   splits             id    
#>   <list>             <chr> 
#> 1 <split [2107/235]> Fold01
#> 2 <split [2107/235]> Fold02
#> 3 <split [2108/234]> Fold03
#> 4 <split [2108/234]> Fold04
#> 5 <split [2108/234]> Fold05
#> 6 <split [2108/234]> Fold06
#> #  4 more rows
…
Figure 10.4: Relationship between the relative variance in performance estimates versus the number of cross-validation repeats

Larger numbers of replicates tend to have less impact on the standard error.
However, if the baseline value of \(\sigma\) is impractically large, the diminishing returns on replication may still be worth the extra computational costs.
To create repeats, invoke vfold_cv() with an additional argument repeats:

vfold_cv(ames_train, v = 10, repeats = 5)
#> #  10-fold cross-validation repeated 5 times 
#> # A tibble: 50 × 3
#>   splits             id      id2   
#>   <list>             <chr>   <chr> 
#> 1 <split [2107/235]> Repeat1 Fold01
#> 2 <split [2107/235]> Repeat1 Fold02
#> 3 <split [2108/234]> Repeat1 Fold03
#> 4 <split [2108/234]> Repeat1 Fold04
#> 5 <split [2108/234]> Repeat1 Fold05
#> 6 <split [2108/234]> Repeat1 Fold06
#> #  44 more rows
…
 Monte Carlo cross-validation

Another variant of V-fold cross-validation is Monte Carlo cross-validation (MCCV, Xu and Liang (2001)).
Like V-fold cross-validation, it allocates a fixed proportion of data to the assessment sets.
The difference between MCCV and regular cross-validation is that, for MCCV, this proportion of the data is randomly selected each time.
This results in assessment sets that are not mutually exclusive.
To create these resampling objects:

mc_cv(ames_train, prop = 9/10, times = 20)
#> # Monte Carlo cross-validation (0.9/0.1) with 20 resamples  
#> # A tibble: 20 × 2
#>   splits             id        
#>   <list>             <chr>     
#> 1 <split [2107/235]> Resample01
#> 2 <split [2107/235]> Resample02
#> 3 <split [2107/235]> Resample03
#> 4 <split [2107/235]> Resample04
#> 5 <split [2107/235]> Resample05
#> 6 <split [2107/235]> Resample06
#> #  14 more rows
…
For our example, let’s save the predictions in order to visualize the model fit and residuals:

keep_pred <- control_resamples(save_pred = TRUE, save_workflow = TRUE)

set.seed(1003)
rf_res <- 
  rf_wflow %>% 
  fit_resamples(resamples = ames_folds, control = keep_pred)
rf_res
#> # Resampling results
#> # 10-fold cross-validation 
#> # A tibble: 10 × 5
#>   splits             id     .metrics         .notes           .predictions      
#>   <list>             <chr>  <list>           <list>           <list>            
#> 1 <split [2107/235]> Fold01 <tibble [2 × 4]> <tibble [0 × 3]> <tibble [235 × 4]>
#> 2 <split [2107/235]> Fold02 <tibble [2 × 4]> <tibble [0 × 3]> <tibble [235 × 4]>
#> 3 <split [2108/234]> Fold03 <tibble [2 × 4]> <tibble [0 × 3]> <tibble [234 × 4]>
#> 4 <split [2108/234]> Fold04 <tibble [2 × 4]> <tibble [0 × 3]> <tibble [234 × 4]>
#> 5 <split [2108/234]> Fold05 <tibble [2 × 4]> <tibble [0 × 3]> <tibble [234 × 4]>
#> 6 <split [2108/234]> Fold06 <tibble [2 × 4]> <tibble [0 × 3]> <tibble [234 × 4]>
#> #  4 more rows
…
collect_metrics(rf_res)
#> # A tibble: 2 × 6
#>   .metric .estimator   mean     n std_err .config             
#>   <chr>   <chr>       <dbl> <int>   <dbl> <chr>               
#> 1 rmse    standard   0.0721    10 0.00305 Preprocessor1_Model1
#> 2 rsq     standard   0.831     10 0.0108  Preprocessor1_Model1
These are the resampling estimates averaged over the individual replicates.
To get the metrics for each resample, use the option summarize = FALSE.
Notice how much more realistic the performance estimates are than the resubstitution estimates from Section 10.1!
To obtain the assessment set predictions:

assess_res <- collect_predictions(rf_res)
assess_res
#> # A tibble: 2,342 × 5
#>   id     .pred  .row Sale_Price .config             
#>   <chr>  <dbl> <int>      <dbl> <chr>               
#> 1 Fold01  5.10    10       5.09 Preprocessor1_Model1
#> 2 Fold01  4.92    27       4.90 Preprocessor1_Model1
#> 3 Fold01  5.21    47       5.08 Preprocessor1_Model1
#> 4 Fold01  5.13    52       5.10 Preprocessor1_Model1
#> 5 Fold01  5.13    59       5.10 Preprocessor1_Model1
#> 6 Fold01  5.13    63       5.11 Preprocessor1_Model1
#> #  2,336 more rows
…
# Test it using: 
# get_model(lm_fit)
Now let’s apply this function to the ten resampled fits.
The results of the extraction function is wrapped in a list object and returned in a tibble:

ctrl <- control_resamples(extract = get_model)

lm_res <- lm_wflow %>%  fit_resamples(resamples = ames_folds, control = ctrl)
lm_res
#> # Resampling results
#> # 10-fold cross-validation 
#> # A tibble: 10 × 5
#>   splits             id     .metrics         .notes           .extracts       
#>   <list>             <chr>  <list>           <list>           <list>          
#> 1 <split [2107/235]> Fold01 <tibble [2 × 4]> <tibble [0 × 3]> <tibble [1 × 2]>
#> 2 <split [2107/235]> Fold02 <tibble [2 × 4]> <tibble [0 × 3]> <tibble [1 × 2]>
#> 3 <split [2108/234]> Fold03 <tibble [2 × 4]> <tibble [0 × 3]> <tibble [1 × 2]>
#> 4 <split [2108/234]> Fold04 <tibble [2 × 4]> <tibble [0 × 3]> <tibble [1 × 2]>
#> 5 <split [2108/234]> Fold05 <tibble [2 × 4]> <tibble [0 × 3]> <tibble [1 × 2]>
#> 6 <split [2108/234]> Fold06 <tibble [2 × 4]> <tibble [0 × 3]> <tibble [1 × 2]>
#> #  4 more rows
Now there is a .extracts column with nested tibbles.
What do these contain? Let’s find out by subsetting.

lm_res$.extracts[[1]]
#> # A tibble: 1 × 2
#>   .extracts         .config             
#>   <list>            <chr>               
#> 1 <tibble [73 × 5]> Preprocessor1_Model1

# To get the results
lm_res$.extracts[[1]][[1]]
#> [[1]]
#> # A tibble: 73 × 5
#>   term                        estimate  std.error statistic   p.value
#>   <chr>                          <dbl>      <dbl>     <dbl>     <dbl>
#> 1 (Intercept)                 1.48     0.320         4.62   4.11e-  6
#> 2 Gr_Liv_Area                 0.000158 0.00000476   33.2    9.72e-194
#> 3 Year_Built                  0.00180  0.000149     12.1    1.57e- 32
#> 4 Neighborhood_College_Creek -0.00163  0.0373       -0.0438 9.65e-  1
#> 5 Neighborhood_Old_Town      -0.0757   0.0138       -5.47   4.92e-  8
#> 6 Neighborhood_Edwards       -0.109    0.0310       -3.53   4.21e-  4
#> #  67 more rows
This might appear to be a convoluted method for saving the model results.
However, extract is flexible and does not assume that the user will only save a single tibble per resample.
For example, the tidy() method might be run on the recipe as well as the model.
In this case, a list of two tibbles will be returned.
For our more simple example, all of the results can be flattened and collected using:

all_coef <- map_dfr(lm_res$.extracts, ~ .x[[1]][[1]])
# Show the replicates for a single predictor:
filter(all_coef, term == "Year_Built")
#> # A tibble: 10 × 5
#>   term       estimate std.error statistic  p.value
#>   <chr>         <dbl>     <dbl>     <dbl>    <dbl>
#> 1 Year_Built  0.00180  0.000149      12.1 1.57e-32
#> 2 Year_Built  0.00180  0.000151      12.0 6.45e-32
#> 3 Year_Built  0.00185  0.000150      12.3 1.00e-33
#> 4 Year_Built  0.00183  0.000147      12.5 1.90e-34
#> 5 Year_Built  0.00184  0.000150      12.2 2.47e-33
#> 6 Year_Built  0.00180  0.000150      12.0 3.35e-32
#> #  4 more rows
…
 Regular grids

Regular grids are combinations of separate sets of parameter values.
First, the user creates a distinct set of values for each parameter.
The number of possible values need not be the same for each parameter.
The tidyr function crossing() is one way to create a regular grid:

crossing(
  hidden_units = 1:3,
  penalty = c(0.0, 0.1),
  epochs = c(100, 200)
)
#> # A tibble: 12 × 3
#>   hidden_units penalty epochs
#>          <int>   <dbl>  <dbl>
#> 1            1     0      100
#> 2            1     0      200
#> 3            1     0.1    100
#> 4            1     0.1    200
#> 5            2     0      100
#> 6            2     0      200
#> #  6 more rows
The parameter object knows the ranges of the parameters.
The dials package contains a set of grid_*() functions that take the parameter object as input to produce different types of grids.
For example:

grid_regular(mlp_param, levels = 2)
#> # A tibble: 8 × 3
#>   hidden_units      penalty epochs
#>          <int>        <dbl>  <int>
#> 1            1 0.0000000001     10
#> 2           10 0.0000000001     10
#> 3            1 1                10
#> 4           10 1                10
#> 5            1 0.0000000001   1000
#> 6           10 0.0000000001   1000
#> #  2 more rows
The levels argument is the number of levels per parameter to create.
It can also take a named vector of values:

mlp_param %>% 
  grid_regular(levels = c(hidden_units = 3, penalty = 2, epochs = 2))
#> # A tibble: 12 × 3
#>   hidden_units      penalty epochs
#>          <int>        <dbl>  <int>
#> 1            1 0.0000000001     10
#> 2            5 0.0000000001     10
#> 3           10 0.0000000001     10
#> 4            1 1                10
#> 5            5 1                10
#> 6           10 1                10
#> #  6 more rows
…
roc_res <- metric_set(roc_auc)
set.seed(1305)
mlp_reg_tune <-
  mlp_wflow %>%
  tune_grid(
    cell_folds,
    grid = mlp_param %>% grid_regular(levels = 3),
    metrics = roc_res
  )
mlp_reg_tune
#> # Tuning results
#> # 10-fold cross-validation 
#> # A tibble: 10 × 4
#>   splits             id     .metrics          .notes          
#>   <list>             <chr>  <list>            <list>          
#> 1 <split [1817/202]> Fold01 <tibble [81 × 8]> <tibble [0 × 3]>
#> 2 <split [1817/202]> Fold02 <tibble [81 × 8]> <tibble [0 × 3]>
#> 3 <split [1817/202]> Fold03 <tibble [81 × 8]> <tibble [0 × 3]>
#> 4 <split [1817/202]> Fold04 <tibble [81 × 8]> <tibble [0 × 3]>
#> 5 <split [1817/202]> Fold05 <tibble [81 × 8]> <tibble [0 × 3]>
#> 6 <split [1817/202]> Fold06 <tibble [81 × 8]> <tibble [0 × 3]>
#> #  4 more rows
…
set.seed(1306)
mlp_sfd_tune <-
  mlp_wflow %>%
  tune_grid(
    cell_folds,
    grid = 20,
    # Pass in the parameter object to use the appropriate range: 
    param_info = mlp_param,
    metrics = roc_res
  )
mlp_sfd_tune
#> # Tuning results
#> # 10-fold cross-validation 
#> # A tibble: 10 × 4
#>   splits             id     .metrics          .notes          
#>   <list>             <chr>  <list>            <list>          
#> 1 <split [1817/202]> Fold01 <tibble [20 × 8]> <tibble [0 × 3]>
#> 2 <split [1817/202]> Fold02 <tibble [20 × 8]> <tibble [0 × 3]>
#> 3 <split [1817/202]> Fold03 <tibble [20 × 8]> <tibble [0 × 3]>
#> 4 <split [1817/202]> Fold04 <tibble [20 × 8]> <tibble [0 × 3]>
#> 5 <split [1817/202]> Fold05 <tibble [20 × 8]> <tibble [0 × 3]>
#> 6 <split [1817/202]> Fold06 <tibble [20 × 8]> <tibble [0 × 3]>
#> #  4 more rows
…
grid_results %>% 
   rank_results() %>% 
   filter(.metric == "rmse") %>% 
   select(model, .config, rmse = mean, rank)
#> # A tibble: 252 × 4
#>   model      .config                rmse  rank
#>   <chr>      <chr>                 <dbl> <int>
#> 1 boost_tree Preprocessor1_Model04  4.25     1
#> 2 boost_tree Preprocessor1_Model06  4.29     2
#> 3 boost_tree Preprocessor1_Model13  4.31     3
#> 4 boost_tree Preprocessor1_Model14  4.39     4
#> 5 boost_tree Preprocessor1_Model16  4.46     5
#> 6 boost_tree Preprocessor1_Model03  4.47     6
#> #  246 more rows
…
glm_estimates <-
  prep(ames_glm) %>%
  tidy(number = 2)

glm_estimates
#> # A tibble: 29 × 4
#>   level              value terms        id               
#>   <chr>              <dbl> <chr>        <chr>            
#> 1 North_Ames          5.15 Neighborhood lencode_glm_ZsXdy
#> 2 College_Creek       5.29 Neighborhood lencode_glm_ZsXdy
#> 3 Old_Town            5.07 Neighborhood lencode_glm_ZsXdy
#> 4 Edwards             5.09 Neighborhood lencode_glm_ZsXdy
#> 5 Somerset            5.35 Neighborhood lencode_glm_ZsXdy
#> 6 Northridge_Heights  5.49 Neighborhood lencode_glm_ZsXdy
#> #  23 more rows
…
mixed_estimates <-
  prep(ames_mixed) %>%
  tidy(number = 2)

mixed_estimates
#> # A tibble: 29 × 4
#>   level              value terms        id                 
#>   <chr>              <dbl> <chr>        <chr>              
#> 1 North_Ames          5.15 Neighborhood lencode_mixed_SC9hi
#> 2 College_Creek       5.29 Neighborhood lencode_mixed_SC9hi
#> 3 Old_Town            5.07 Neighborhood lencode_mixed_SC9hi
#> 4 Edwards             5.10 Neighborhood lencode_mixed_SC9hi
#> 5 Somerset            5.35 Neighborhood lencode_mixed_SC9hi
#> 6 Northridge_Heights  5.49 Neighborhood lencode_mixed_SC9hi
#> #  23 more rows
…
